GBIF Occurrences
…
We need to tell it which columns are the longitude and latitude. The default in GBIF downloads is that they are called decimalLongitude and decimalLatitude, so we will use those names. Amend the code below if the names are any different in your download, for some reason.

In this code chunk, we set the CRS of the spatial data object download_sf to be 4326, ie WGS84, which is a geographic CRS, with positions and distance measured in degrees. Further down the line, this may not be what you want…

download_sf <- download_df |>
  st_as_sf(coords = c("decimalLongitude", "decimalLatitude"), crs = 4326) |>
  st_cast("POINT")
download_sf

Simple feature collection with 1108 features and 48 fields
Geometry type: POINT
Dimension:     XY
Bounding box:  xmin: -108.0761 ymin: 12.00083 xmax: 8.7583 ymax: 48.71197
Geodetic CRS:  WGS 84
# A tibble: 1,108 × 49
       gbifID datasetKey    occurrenceID kingdom phylum class order family genus
      <int64> <chr>         <chr>        <chr>   <chr>  <chr> <chr> <chr>  <chr>
 1 5844648229 50c9509d-22c… https://www… Animal… Cnida… Hydr… Siph… Physa… Phys…
 2 5844597336 50c9509d-22c… https://www… Animal… Cnida… Hydr… Siph… Physa… Phys…
 3 5844340900 50c9509d-22c… https://www… Animal… Cnida… Hydr… Siph… Physa… Phys…
 4 5844181143 50c9509d-22c… https://www… Animal… Cnida… Hydr… Siph… Physa… Phys…
 5 5844120125 50c9509d-22c… https://www… Animal… Cnida… Hydr… Siph… Physa… Phys…
 6 5844046698 50c9509d-22c… https://www… Animal… Cnida… Hydr… Siph… Physa… Phys…
 7 5840987515 8a863029-f43… https://obs… Animal… Cnida… Hydr… Siph… Physa… Phys…
 8 5840970628 8a863029-f43… https://obs… Animal… Cnida… Hydr… Siph… Physa… Phys…
 9 5840940083 8a863029-f43… https://obs… Animal… Cnida… Hydr… Siph… Physa… Phys…
10 5840919548 8a863029-f43… https://obs… Animal… Cnida… Hydr… Siph… Physa… Phys…
# ℹ 1,098 more rows
# ℹ 40 more variables: species <chr>, infraspecificEpithet <lgl>,
#   taxonRank <chr>, scientificName <chr>, verbatimScientificName <chr>,
#   verbatimScientificNameAuthorship <chr>, countryCode <chr>, locality <chr>,
#   stateProvince <chr>, occurrenceStatus <chr>, individualCount <int>,
#   publishingOrgKey <chr>, coordinateUncertaintyInMeters <dbl>,
#   coordinatePrecision <lgl>, elevation <lgl>, elevationAccuracy <lgl>, …
…
